\relax 
\@writefile{toc}{\contentsline {section}{\numberline {1}Last Log}{1}}
\@writefile{lol}{\contentsline {lstlisting}{lastLogs.txt}{1}}
\@writefile{lol}{\contentsline {lstlisting}{hist.log}{1}}
\@writefile{lol}{\contentsline {lstlisting}{top.log}{2}}
