botti    pts/3        144.80.110.64    Tue Sep 18 14:07   still logged in
botti    pts/1        144.80.110.64    Tue Sep 18 14:05   still logged in
cicolini pts/0        144.80.110.67    Tue Sep 18 14:00   still logged in
cicolini pts/1        144.80.133.68    Tue Sep 18 13:58 - 13:58  (00:00)
peters   pts/0        144.80.66.18     Tue Sep 18 13:46 - 14:00  (00:13)
cicolini pts/3        144.80.133.68    Tue Sep 18 13:28 - 13:57  (00:29)
cicolini pts/1        144.80.133.68    Tue Sep 18 13:17 - 13:46  (00:28)
peters   pts/0        144.80.66.18     Tue Sep 18 13:17 - 13:46  (00:29)
cicolini pts/3        144.80.133.68    Tue Sep 18 11:55 - 12:14  (00:18)
cicolini pts/3        144.80.110.84    Tue Sep 18 10:58 - 11:48  (00:49)
klein    pts/2        144.80.91.18     Tue Sep 18 10:57 - 14:10  (03:13)
cicolini pts/1        144.80.133.68    Tue Sep 18 10:57 - 13:09  (02:12)
palmer   pts/0        144.80.186.52    Tue Sep 18 10:57 - 12:09  (01:12)
cicolini pts/4        144.80.133.68    Tue Sep 18 10:30 - 10:41  (00:11)
cicolini pts/4        144.80.133.68    Tue Sep 18 10:09 - 10:30  (00:20)
klein    pts/3        144.80.65.149    Tue Sep 18 10:06 - 10:52  (00:45)
seger    pts/2        144.80.65.148    Tue Sep 18 10:03 - 10:50  (00:47)
klein    pts/1        144.80.65.149    Tue Sep 18 10:01 - 10:52  (00:50)
seger    pts/0        144.80.65.148    Tue Sep 18 09:22 - 10:50  (01:27)
sansing  pts/0        144.80.110.57    Mon Sep 17 20:43 - 21:53  (01:10)
sansing  pts/0        144.80.110.57    Mon Sep 17 20:40 - 20:41  (00:00)
sansing  pts/4        144.80.110.57    Mon Sep 17 20:27 - 20:36  (00:08)
sansing  pts/3        144.80.110.57    Mon Sep 17 20:24 - 21:53  (01:28)
sansing  pts/3        144.80.110.57    Mon Sep 17 20:24 - 20:24  (00:00)
sycz     pts/2        144.80.110.53    Mon Sep 17 19:46 - 20:40  (00:53)
cicolini pts/1        144.80.110.69    Mon Sep 17 19:24 - 20:51  (01:27)
sycz     pts/0        144.80.110.53    Mon Sep 17 19:02 - 20:40  (01:37)
cicolini pts/0        144.80.133.68    Mon Sep 17 18:47 - 18:47  (00:00)
cicolini pts/0        144.80.133.68    Mon Sep 17 18:44 - 18:46  (00:02)
cicolini pts/0        144.80.133.68    Mon Sep 17 18:36 - 18:43  (00:06)
cicolini pts/0        144.80.110.81    Mon Sep 17 16:15 - 17:07  (00:52)
cicolini pts/0        144.80.110.81    Mon Sep 17 15:53 - 16:13  (00:19)
sansing  pts/1        144.80.66.74     Mon Sep 17 15:23 - 15:24  (00:00)
shakespe pts/6        144.80.144.181   Mon Sep 17 15:17 - 15:22  (00:05)
sycz     pts/23       144.80.57.247    Mon Sep 17 15:15 - 15:23  (00:08)
custer   pts/15       144.80.66.56     Mon Sep 17 15:01 - 15:21  (00:19)
shakespe pts/6        144.80.66.49     Mon Sep 17 15:01 - 15:16  (00:14)
geary    pts/24       144.80.66.64     Mon Sep 17 14:53 - 15:22  (00:28)
shakespe pts/27       144.80.66.49     Mon Sep 17 14:42 - 15:01  (00:19)
shakespe pts/27       144.80.66.49     Mon Sep 17 14:39 - 14:41  (00:02)
zaunegge pts/25       144.80.66.75     Mon Sep 17 14:38 - 15:23  (00:45)
luther   pts/23       144.80.141.30    Mon Sep 17 14:38 - 14:59  (00:21)
george   pts/28       144.80.66.70     Mon Sep 17 14:37 - 15:21  (00:44)
daniel   pts/27       tmux(44920).%10  Mon Sep 17 14:37 - 14:37  (00:00)
daniel   pts/25       tmux(44920).%9   Mon Sep 17 14:37 - 14:37  (00:00)
daniel   pts/23       tmux(44920).%8   Mon Sep 17 14:37 - 14:37  (00:00)
geary    pts/24       144.80.66.64     Mon Sep 17 14:37 - 14:53  (00:15)
luther   pts/23       144.80.141.30    Mon Sep 17 14:37 - 14:37  (00:00)
jchrispe pts/22       144.80.64.176    Mon Sep 17 14:37 - 15:25  (00:48)
sansing  pts/21       144.80.66.74     Mon Sep 17 14:37 - 15:23  (00:46)
enterlin pts/19       144.80.38.7      Mon Sep 17 14:37 - 15:38  (01:01)
murphy   pts/20       144.80.66.50     Mon Sep 17 14:37 - 15:22  (00:45)
daniel   pts/19       tmux(44920).%7   Mon Sep 17 14:37 - 14:37  (00:00)
wise     pts/17       144.80.66.73     Mon Sep 17 14:37 - 15:24  (00:47)
daniel   pts/9        144.80.89.40     Mon Sep 17 14:37 - 15:38  (01:01)
sansing  pts/17       144.80.66.74     Mon Sep 17 14:35 - 14:36  (00:01)
seger    pts/16       144.80.66.60     Mon Sep 17 14:34 - 15:23  (00:48)
custer   pts/15       144.80.66.56     Mon Sep 17 14:33 - 15:01  (00:28)
palmer   pts/13       144.80.66.57     Mon Sep 17 14:32 - 15:22  (00:49)
seger    pts/14       144.80.66.60     Mon Sep 17 14:32 - 15:23  (00:51)
custer   pts/13       144.80.66.56     Mon Sep 17 14:32 - 14:32  (00:00)
serafin  pts/1        144.80.66.66     Mon Sep 17 14:32 - 15:21  (00:49)
cicolini pts/12       144.80.66.76     Mon Sep 17 14:31 - 15:24  (00:53)
sycz     pts/11       144.80.57.247    Mon Sep 17 14:31 - 15:23  (00:52)
botti    pts/3        144.80.66.77     Mon Sep 17 14:30 - 15:24  (00:53)
klein    pts/10       144.80.66.59     Mon Sep 17 14:29 - 15:24  (00:54)
geary    pts/9        144.80.66.64     Mon Sep 17 14:29 - 14:36  (00:07)
fetterma pts/8        144.80.212.36    Mon Sep 17 14:29 - 15:20  (00:51)
turner   pts/7        144.80.66.52     Mon Sep 17 14:28 - 15:25  (00:56)
murphy   pts/6        144.80.66.50     Mon Sep 17 14:28 - 14:59  (00:31)
shabella pts/5        144.80.66.61     Mon Sep 17 14:27 - 15:22  (00:54)
colagran pts/4        144.80.66.54     Mon Sep 17 14:24 - 15:24  (00:59)
palmer   pts/3        144.80.66.57     Mon Sep 17 14:23 - 14:30  (00:07)
suchy    pts/2        144.80.66.53     Mon Sep 17 14:22 - 15:22  (00:59)
sycz     pts/2        144.80.57.247    Mon Sep 17 14:19 - 14:19  (00:00)
custer   pts/1        144.80.66.56     Mon Sep 17 14:18 - 14:31  (00:12)
murphy   pts/1        144.80.66.18     Mon Sep 17 14:11 - 14:17  (00:05)
custer   pts/1        144.80.144.165   Mon Sep 17 14:08 - 14:09  (00:00)
palmer   pts/0        144.80.184.172   Mon Sep 17 14:06 - 15:38  (01:31)
enterlin pts/0        144.80.38.7      Mon Sep 17 13:54 - 13:58  (00:03)
murphy   pts/4        144.80.66.18     Mon Sep 17 13:40 - 13:50  (00:09)
palmer   pts/3        144.80.184.172   Mon Sep 17 13:17 - 14:01  (00:43)
sycz     pts/2        144.80.57.247    Mon Sep 17 13:16 - 13:50  (00:34)
suchy    pts/0        144.80.66.6      Mon Sep 17 13:15 - 13:50  (00:35)
palmer   pts/0        144.80.184.172   Mon Sep 17 11:04 - 13:09  (02:04)
enterlin pts/1        144.80.38.7      Mon Sep 17 10:48 - 13:45  (02:57)
palmer   pts/0        144.80.65.101    Mon Sep 17 10:46 - 10:59  (00:13)
palmer   pts/0        144.80.65.101    Mon Sep 17 10:42 - 10:45  (00:02)
sycz     pts/1        144.80.57.247    Mon Sep 17 10:38 - 10:40  (00:01)
palmer   pts/0        144.80.65.101    Mon Sep 17 10:20 - 10:41  (00:21)
sansing  pts/0        144.80.64.127    Mon Sep 17 10:01 - 10:04  (00:03)
wise     pts/1        144.80.120.86    Mon Sep 17 09:55 - 09:59  (00:04)
sansing  pts/1        144.80.66.61     Mon Sep 17 09:40 - 09:45  (00:04)
wise     pts/0        144.80.120.86    Mon Sep 17 09:32 - 09:59  (00:27)
wise     pts/0        144.80.120.86    Mon Sep 17 09:19 - 09:32  (00:12)
wise     pts/0        144.80.66.65     Mon Sep 17 08:51 - 08:55  (00:04)
wise     pts/0        144.80.66.65     Mon Sep 17 08:48 - 08:49  (00:01)
shabella pts/0        144.80.94.59     Sun Sep 16 19:22 - 21:34  (02:12)
seger    pts/7        144.80.66.60     Fri Sep 14 15:18 - 15:21  (00:03)
luther   pts/36       tmux(51714).%1   Fri Sep 14 15:07   still logged in
luther   pts/35       tmux(51714).%0   Fri Sep 14 15:07   still logged in
luther   pts/19       144.80.142.91    Fri Sep 14 15:01 - 15:39  (00:37)
colagran pts/17       144.80.66.54     Fri Sep 14 15:00 - 15:23  (00:23)
seger    pts/34       144.80.66.60     Fri Sep 14 14:58 - 15:15  (00:17)
palmer   pts/7        144.80.66.57     Fri Sep 14 14:58 - 15:12  (00:13)
daniel   pts/33       tmux(44920).%6   Fri Sep 14 14:56 - 15:20  (00:24)
daniel   pts/32       tmux(44920).%5   Fri Sep 14 14:56 - 15:20  (00:24)
daniel   pts/25       tmux(44920).%4   Fri Sep 14 14:56 - 15:20  (00:24)
daniel   pts/9        144.80.66.67     Fri Sep 14 14:56 - 15:20  (00:24)
daniel   pts/18       tmux(44920).%3   Fri Sep 14 14:50   still logged in
daniel   pts/9        144.80.185.141   Fri Sep 14 14:50 - 14:52  (00:01)
cicolini pts/1        144.80.66.76     Fri Sep 14 14:47 - 15:25  (00:37)
shabella pts/31       144.80.66.61     Fri Sep 14 14:44 - 15:23  (00:38)
fetterma pts/18       tmux(45273).%0   Fri Sep 14 14:44 - 14:45  (00:00)
daniel   pts/30       tmux(44920).%2   Fri Sep 14 14:43   still logged in
daniel   pts/29       tmux(44920).%1   Fri Sep 14 14:43   still logged in
daniel   pts/26       tmux(44920).%0   Fri Sep 14 14:43   still logged in
enterlin pts/4        144.80.36.241    Fri Sep 14 14:42 - 15:31  (00:49)
zaunegge pts/22       144.80.66.75     Fri Sep 14 14:41 - 15:15  (00:34)
colagran pts/17       144.80.66.54     Fri Sep 14 14:41 - 14:59  (00:18)
luther   pts/19       144.80.142.91    Fri Sep 14 14:41 - 15:01  (00:20)
serafin  pts/16       144.80.66.66     Fri Sep 14 14:41 - 15:23  (00:42)
sansing  pts/14       144.80.66.74     Fri Sep 14 14:40 - 15:23  (00:43)
klein    pts/28       144.80.66.59     Fri Sep 14 14:38 - 15:23  (00:44)
shakespe pts/27       144.80.66.49     Fri Sep 14 14:37 - 15:21  (00:43)
serafin  pts/16       144.80.66.66     Fri Sep 14 14:36 - 14:40  (00:04)
palmer   pts/5        144.80.66.57     Fri Sep 14 14:36 - 15:20  (00:44)
luther   pts/26       tmux(41238).%0   Fri Sep 14 14:35 - 14:39  (00:04)
daniel   pts/25       144.80.185.141   Fri Sep 14 14:35 - 14:49  (00:14)
sycz     pts/24       144.80.58.96     Fri Sep 14 14:35 - 15:19  (00:43)
suchy    pts/23       144.80.66.53     Fri Sep 14 14:35 - 15:16  (00:40)
luther   pts/22       144.80.142.91    Fri Sep 14 14:35 - 14:39  (00:04)
murphy   pts/21       144.80.66.50     Fri Sep 14 14:35 - 15:23  (00:48)
peters   pts/20       144.80.66.62     Fri Sep 14 14:34 - 15:14  (00:39)
colagran pts/19       144.80.66.54     Fri Sep 14 14:34 - 14:40  (00:05)
shabella pts/18       144.80.66.61     Fri Sep 14 14:34 - 14:44  (00:10)
seger    pts/7        144.80.66.60     Fri Sep 14 14:34 - 14:58  (00:24)
zaunegge pts/17       144.80.66.75     Fri Sep 14 14:33 - 14:41  (00:07)
serafin  pts/16       144.80.66.66     Fri Sep 14 14:33 - 14:36  (00:02)
botti    pts/15       144.80.66.77     Fri Sep 14 14:33 - 15:24  (00:50)
sansing  pts/14       144.80.66.74     Fri Sep 14 14:33 - 14:40  (00:06)
turner   pts/11       144.80.66.52     Fri Sep 14 14:33 - 15:21  (00:47)
wise     pts/6        144.80.66.73     Fri Sep 14 14:33 - 15:23  (00:50)
jchrispe pts/10       144.80.64.176    Fri Sep 14 14:33 - 15:27  (00:53)
george   pts/3        144.80.66.70     Fri Sep 14 14:33 - 15:23  (00:50)
geary    pts/0        144.80.66.64     Fri Sep 14 14:33 - 15:20  (00:46)
enterlin pts/6        144.80.36.241    Fri Sep 14 14:31 - 14:33  (00:02)
suchy    pts/14       144.80.66.53     Fri Sep 14 14:30 - 14:31  (00:01)
geary    pts/9        144.80.66.64     Fri Sep 14 14:30 - 14:44  (00:14)
shabella pts/13       144.80.66.61     Fri Sep 14 14:29 - 15:23  (00:53)
peters   pts/6        144.80.66.62     Fri Sep 14 14:27 - 14:31  (00:03)
fetterma pts/12       144.80.212.36    Fri Sep 14 14:26 - 15:22  (00:55)
serafin  pts/11       144.80.66.66     Fri Sep 14 14:26 - 14:32  (00:05)
seger    pts/10       144.80.66.60     Fri Sep 14 14:26 - 14:31  (00:04)
geary    pts/9        144.80.66.64     Fri Sep 14 14:26 - 14:30  (00:03)
murphy   pts/8        144.80.66.50     Fri Sep 14 14:26 - 15:23  (00:57)
sycz     pts/7        144.80.58.96     Fri Sep 14 14:26 - 14:34  (00:07)
peters   pts/6        144.80.66.62     Fri Sep 14 14:25 - 14:27  (00:02)
colagran pts/5        144.80.66.54     Fri Sep 14 14:24 - 14:36  (00:11)
seger    pts/2        144.80.66.60     Fri Sep 14 14:23 - 15:23  (00:59)
enterlin pts/4        144.80.36.241    Fri Sep 14 14:22 - 14:41  (00:19)
daniel   pts/3        144.80.185.141   Fri Sep 14 14:21 - 14:31  (00:10)
seger    pts/2        144.80.66.60     Fri Sep 14 14:20 - 14:23  (00:02)
turner   pts/1        144.80.66.52     Fri Sep 14 14:19 - 14:44  (00:25)
palmer   pts/0        144.80.66.57     Fri Sep 14 14:09 - 14:32  (00:22)
sansing  pts/0        144.80.64.127    Fri Sep 14 13:45 - 13:45  (00:00)
shakespe pts/0        144.80.66.12     Fri Sep 14 13:28 - 13:33  (00:04)
sansing  pts/0        144.80.213.55    Fri Sep 14 12:21 - 12:21  (00:00)
murphy   pts/0        144.80.66.6      Fri Sep 14 11:19 - 11:53  (00:34)
sansing  pts/0        144.80.64.127    Fri Sep 14 10:20 - 10:21  (00:01)
daniel   pts/0        144.80.185.141   Thu Sep 13 18:25 - 18:26  (00:00)
jchrispe pts/0        144.80.64.176    Thu Sep 13 14:51 - 15:01  (00:09)
jchrispe pts/0        144.80.65.147    Thu Sep 13 13:50 - 14:00  (00:10)
palmer   pts/0        144.80.185.23    Thu Sep 13 12:32 - 12:34  (00:02)
palmer   pts/0        144.80.185.23    Thu Sep 13 11:09 - 11:50  (00:40)
palmer   pts/0        144.80.185.23    Thu Sep 13 10:57 - 11:07  (00:09)
sansing  pts/0        144.80.64.127    Wed Sep 12 17:41 - 17:41  (00:00)
shabella pts/1        144.80.94.59     Wed Sep 12 16:54 - 17:06  (00:12)
shabella pts/0        144.80.94.59     Wed Sep 12 16:35 - 17:06  (00:31)
sycz     pts/0        144.80.57.242    Wed Sep 12 15:20 - 15:20  (00:00)
wise     pts/3        144.80.66.73     Wed Sep 12 15:17 - 15:20  (00:03)
wise     pts/19       144.80.66.73     Wed Sep 12 15:12 - 15:16  (00:04)
luther   pts/26       tmux(6569).%10   Wed Sep 12 15:03 - 15:18  (00:14)
luther   pts/26       tmux(6569).%9    Wed Sep 12 15:03 - 15:03  (00:00)
george   pts/23       144.80.66.70     Wed Sep 12 15:02 - 15:20  (00:18)
george   pts/23       144.80.66.70     Wed Sep 12 15:01 - 15:02  (00:00)
shakespe pts/28       144.80.66.61     Wed Sep 12 15:00 - 15:21  (00:20)
sansing  pts/9        144.80.66.74     Wed Sep 12 15:00 - 15:21  (00:21)
george   pts/23       144.80.66.70     Wed Sep 12 14:59 - 15:01  (00:02)
fetterma pts/27       144.80.212.122   Wed Sep 12 14:57 - 15:21  (00:23)
luther   pts/28       tmux(6569).%8    Wed Sep 12 14:56 - 14:56  (00:00)
luther   pts/27       tmux(6569).%7    Wed Sep 12 14:56 - 14:56  (00:00)
luther   pts/26       tmux(6569).%6    Wed Sep 12 14:56 - 15:03  (00:07)
zaunegge pts/25       144.80.66.75     Wed Sep 12 14:56 - 15:16  (00:19)
luther   pts/27       tmux(6569).%5    Wed Sep 12 14:56 - 14:56  (00:00)
luther   pts/26       tmux(6569).%4    Wed Sep 12 14:56 - 14:56  (00:00)
luther   pts/25       tmux(6569).%3    Wed Sep 12 14:56 - 14:56  (00:00)
luther   pts/10       tmux(6569).%2    Wed Sep 12 14:56 - 15:18  (00:22)
daniel   pts/2        tmux(4125).%1    Wed Sep 12 14:53 - 15:20  (00:27)
palmer   pts/3        144.80.187.215   Wed Sep 12 14:44 - 15:15  (00:31)
colagran pts/24       144.80.66.54     Wed Sep 12 14:38 - 15:34  (00:56)
luther   pts/23       tmux(6569).%1    Wed Sep 12 14:37 - 14:58  (00:20)
luther   pts/22       tmux(6569).%0    Wed Sep 12 14:37 - 15:18  (00:41)
luther   pts/21       144.80.142.91    Wed Sep 12 14:37 - 15:18  (00:41)
luther   pts/21       144.80.142.91    Wed Sep 12 14:36 - 14:36  (00:00)
peters   pts/20       144.80.66.62     Wed Sep 12 14:33 - 15:18  (00:44)
wise     pts/19       144.80.66.73     Wed Sep 12 14:33 - 15:12  (00:38)
enterlin pts/18       144.80.66.69     Wed Sep 12 14:33 - 15:20  (00:47)
botti    pts/17       144.80.66.77     Wed Sep 12 14:31 - 15:20  (00:49)
cicolini pts/16       144.80.66.76     Wed Sep 12 14:31 - 15:20  (00:49)
schrecen pts/15       144.80.66.48     Wed Sep 12 14:30 - 15:13  (00:43)
geary    pts/13       144.80.66.64     Wed Sep 12 14:30 - 15:21  (00:51)
colagran pts/1        144.80.66.54     Wed Sep 12 14:30 - 15:34  (01:03)
suchy    pts/14       144.80.66.53     Wed Sep 12 14:29 - 15:17  (00:48)
geary    pts/13       144.80.66.64     Wed Sep 12 14:29 - 14:29  (00:00)
geary    pts/13       144.80.66.64     Wed Sep 12 14:27 - 14:29  (00:01)
serafin  pts/12       144.80.66.66     Wed Sep 12 14:27 - 15:21  (00:53)
turner   pts/11       144.80.66.52     Wed Sep 12 14:27 - 15:21  (00:53)
fetterma pts/10       144.80.212.122   Wed Sep 12 14:27 - 14:46  (00:19)
sansing  pts/9        144.80.66.74     Wed Sep 12 14:26 - 15:00  (00:33)
klein    pts/8        144.80.66.59     Wed Sep 12 14:25 - 15:21  (00:55)
daniel   pts/7        tmux(4125).%0    Wed Sep 12 14:25 - 15:20  (00:55)
seger    pts/6        144.80.66.60     Wed Sep 12 14:24 - 15:21  (00:56)
daniel   pts/5        144.80.186.215   Wed Sep 12 14:24 - 15:20  (00:56)
sycz     pts/0        144.80.57.242    Wed Sep 12 14:23 - 15:19  (00:55)
custer   pts/4        144.80.66.56     Wed Sep 12 14:21 - 15:13  (00:52)
palmer   pts/3        144.80.187.215   Wed Sep 12 14:19 - 14:43  (00:24)
colagran pts/1        144.80.66.54     Wed Sep 12 14:18 - 14:29  (00:11)
schrecen pts/1        144.80.65.79     Wed Sep 12 13:41 - 14:10  (00:28)
schrecen pts/1        144.80.65.79     Wed Sep 12 13:31 - 13:41  (00:10)
palmer   pts/4        144.80.187.215   Wed Sep 12 13:18 - 13:30  (00:12)
suchy    pts/3        144.80.66.7      Wed Sep 12 13:09 - 13:55  (00:46)
murphy   pts/2        144.80.110.75    Wed Sep 12 13:08 - 14:45  (01:36)
murphy   pts/1        144.80.110.61    Wed Sep 12 12:31 - 13:21  (00:50)
seger    pts/4        144.80.65.148    Wed Sep 12 12:24 - 12:54  (00:29)
seger    pts/3        144.80.65.148    Wed Sep 12 12:24 - 12:54  (00:30)
murphy   pts/1        144.80.110.61    Wed Sep 12 12:18 - 12:30  (00:12)
zaunegge pts/2        144.80.37.50     Wed Sep 12 12:13 - 12:32  (00:19)
colagran pts/4        144.80.110.107   Wed Sep 12 12:03 - 12:16  (00:13)
colagran pts/3        144.80.110.107   Wed Sep 12 11:54 - 12:16  (00:22)
sansing  pts/0        144.80.64.127    Wed Sep 12 11:50 - 14:23  (02:32)
colagran pts/3        144.80.110.107   Wed Sep 12 11:35 - 11:53  (00:18)
turner   pts/2        144.80.235.44    Wed Sep 12 11:33 - 12:05  (00:32)
colagran pts/0        144.80.110.107   Wed Sep 12 11:31 - 11:50  (00:19)
colagran pts/1        144.80.110.107   Wed Sep 12 11:24 - 12:16  (00:52)
jchrispe pts/0        144.80.214.243   Wed Sep 12 11:21 - 11:25  (00:04)
sansing  pts/0        144.80.64.127    Wed Sep 12 10:17 - 10:18  (00:01)
sansing  pts/0        144.80.214.200   Wed Sep 12 10:10 - 10:10  (00:00)
sansing  pts/0        144.80.66.60     Wed Sep 12 09:13 - 09:14  (00:01)
johnc    pts/0        144.80.214.243   Wed Sep 12 08:47 - 08:50  (00:02)
jchrispe pts/0        144.80.214.243   Wed Sep 12 08:40 - 08:47  (00:07)
reboot   system boot  4.15.0-33-generi Wed Sep 12 03:33   still running
shabella pts/6        144.80.93.42     Tue Sep 11 23:55 - 01:40  (01:45)
sansing  pts/6        144.80.110.89    Tue Sep 11 23:49 - 23:51  (00:01)
shabella pts/6        144.80.93.42     Tue Sep 11 22:58 - 23:29  (00:31)
geary    pts/6        144.80.110.60    Tue Sep 11 22:32 - 22:42  (00:10)
fetterma pts/0        144.80.110.79    Tue Sep 11 22:07 - 00:24  (02:17)
sycz     pts/6        144.80.110.70    Tue Sep 11 21:44 - 21:57  (00:12)
sycz     pts/0        144.80.110.70    Tue Sep 11 21:42 - 21:57  (00:14)
serafin  pts/7        144.80.110.76    Tue Sep 11 21:17 - 21:33  (00:16)
serafin  pts/7        144.80.110.76    Tue Sep 11 21:12 - 21:17  (00:04)
george   pts/6        144.80.110.67    Tue Sep 11 21:10 - 21:30  (00:20)
george   pts/6        144.80.110.67    Tue Sep 11 21:01 - 21:10  (00:08)
turner   pts/8        144.80.1.103     Tue Sep 11 20:32 - 21:32  (00:59)
george   pts/6        144.80.110.72    Tue Sep 11 20:14 - 20:59  (00:44)
george   pts/6        144.80.110.72    Tue Sep 11 19:57 - 20:13  (00:16)
george   pts/0        144.80.110.66    Tue Sep 11 19:10 - 21:34  (02:24)
botti    pts/9        144.80.110.61    Tue Sep 11 17:52 - 18:24  (00:32)
serafin  pts/6        144.80.110.84    Tue Sep 11 17:52 - 18:24  (00:32)
george   pts/7        144.80.110.67    Tue Sep 11 17:14 - 20:37  (03:22)
fetterma pts/7        144.80.110.65    Tue Sep 11 16:45 - 17:04  (00:19)
fetterma pts/9        144.80.110.66    Tue Sep 11 16:27 - 16:42  (00:15)
george   pts/8        144.80.110.89    Tue Sep 11 16:26 - 18:42  (02:16)
fetterma pts/8        144.80.110.66    Tue Sep 11 16:07 - 16:26  (00:18)
fetterma pts/7        144.80.110.66    Tue Sep 11 16:07 - 16:42  (00:34)
geary    pts/7        144.80.64.114    Tue Sep 11 15:49 - 15:51  (00:01)
serafin  pts/6        144.80.110.84    Tue Sep 11 15:32 - 17:51  (02:19)
serafin  pts/0        144.80.110.84    Tue Sep 11 15:21 - 18:24  (03:02)
sansing  pts/0        144.80.64.127    Tue Sep 11 15:19 - 15:21  (00:01)
palmer   pts/0        144.80.66.3      Tue Sep 11 13:49 - 14:13  (00:24)
palmer   pts/0        144.80.66.59     Tue Sep 11 12:45 - 13:42  (00:57)
wise     pts/6        144.80.65.102    Tue Sep 11 12:30 - 12:32  (00:02)
palmer   pts/0        144.80.66.59     Tue Sep 11 12:29 - 12:45  (00:15)
custer   pts/9        144.80.66.56     Tue Sep 11 10:37 - 12:19  (01:42)
seger    pts/8        144.80.65.148    Tue Sep 11 09:45 - 10:55  (01:09)
klein    pts/7        144.80.65.149    Tue Sep 11 09:44 - 10:50  (01:05)
klein    pts/6        144.80.65.149    Tue Sep 11 09:44 - 10:50  (01:06)
seger    pts/0        144.80.65.148    Tue Sep 11 09:43 - 10:56  (01:13)
seger    pts/6        144.80.66.60     Tue Sep 11 08:00 - 08:01  (00:00)
fetterma pts/0        144.80.213.161   Tue Sep 11 07:58 - 08:01  (00:02)
geary    pts/0        144.80.110.108   Mon Sep 10 23:16 - 23:18  (00:02)
geary    pts/0        144.80.110.72    Mon Sep 10 22:56 - 23:04  (00:07)
wise     pts/8        144.80.110.68    Mon Sep 10 21:25 - 21:42  (00:17)
wise     pts/8        144.80.110.68    Mon Sep 10 21:21 - 21:25  (00:03)
wise     pts/7        144.80.110.68    Mon Sep 10 21:20 - 21:42  (00:22)
wise     pts/7        144.80.110.68    Mon Sep 10 21:19 - 21:19  (00:00)
sansing  pts/6        144.80.110.70    Mon Sep 10 21:18 - 21:36  (00:17)
sansing  pts/6        144.80.110.70    Mon Sep 10 21:10 - 21:18  (00:07)
sansing  pts/0        144.80.110.70    Mon Sep 10 21:10 - 21:38  (00:27)
sansing  pts/6        144.80.110.70    Mon Sep 10 21:06 - 21:09  (00:03)
sansing  pts/0        144.80.110.70    Mon Sep 10 21:06 - 21:09  (00:03)
sansing  pts/0        144.80.110.70    Mon Sep 10 21:06 - 21:06  (00:00)
sansing  pts/6        144.80.110.100   Mon Sep 10 20:18 - 21:04  (00:46)
sansing  pts/0        144.80.110.100   Mon Sep 10 20:16 - 21:04  (00:48)
sansing  pts/0        144.80.110.102   Mon Sep 10 20:12 - 20:15  (00:02)
sansing  pts/0        144.80.110.102   Mon Sep 10 19:57 - 19:59  (00:02)
serafin  pts/0        144.80.110.90    Mon Sep 10 17:30 - 17:41  (00:11)
geary    pts/0        144.80.64.114    Mon Sep 10 16:30 - 17:17  (00:46)
daniel   pts/9        tmux(21211).%75  Mon Sep 10 15:59 - 16:05  (00:06)
daniel   pts/7        tmux(21211).%74  Mon Sep 10 15:59 - 16:05  (00:06)
daniel   pts/6        tmux(21211).%73  Mon Sep 10 15:59 - 16:06  (00:07)
daniel   pts/7        tmux(21211).%72  Mon Sep 10 15:55 - 15:55  (00:00)
daniel   pts/6        tmux(21211).%71  Mon Sep 10 15:55 - 15:55  (00:00)
daniel   pts/9        tmux(21211).%70  Mon Sep 10 15:55 - 15:55  (00:00)
geary    pts/8        144.80.64.114    Mon Sep 10 15:54 - 16:16  (00:21)
daniel   pts/7        tmux(21211).%69  Mon Sep 10 15:54 - 15:55  (00:00)
daniel   pts/6        tmux(21211).%68  Mon Sep 10 15:54 - 15:55  (00:00)
daniel   pts/7        tmux(21211).%67  Mon Sep 10 15:54 - 15:54  (00:00)
daniel   pts/6        tmux(21211).%66  Mon Sep 10 15:54 - 15:54  (00:00)
daniel   pts/0        144.80.110.74    Mon Sep 10 15:53 - 16:06  (00:13)
geary    pts/6        144.80.64.114    Mon Sep 10 15:26 - 15:43  (00:16)
seger    pts/0        144.80.65.228    Mon Sep 10 15:24 - 15:26  (00:01)
peters   pts/0        144.80.66.62     Mon Sep 10 15:23 - 15:23  (00:00)
palmer   pts/22       144.80.66.57     Mon Sep 10 15:18 - 15:20  (00:02)
luther   pts/18       tmux(31009).%11  Mon Sep 10 15:18 - 03:17 (1+11:59)
seger    pts/14       144.80.66.60     Mon Sep 10 15:17 - 15:20  (00:03)
sansing  pts/20       144.80.66.74     Mon Sep 10 15:16 - 15:20  (00:04)
fetterma pts/12       144.80.215.44    Mon Sep 10 15:15 - 15:21  (00:05)
sansing  pts/20       144.80.66.74     Mon Sep 10 15:14 - 15:15  (00:01)
geary    pts/13       144.80.66.64     Mon Sep 10 15:11 - 15:23  (00:11)
wise     pts/45       144.80.66.73     Mon Sep 10 15:10 - 15:10  (00:00)
sansing  pts/45       144.80.66.74     Mon Sep 10 15:06 - 15:06  (00:00)
enterlin pts/15       144.80.36.241    Mon Sep 10 15:05 - 15:20  (00:14)
enterlin pts/45       144.80.36.241    Mon Sep 10 15:04 - 15:06  (00:01)
geary    pts/13       144.80.66.64     Mon Sep 10 15:04 - 15:11  (00:07)
palmer   pts/22       144.80.66.57     Mon Sep 10 15:03 - 15:17  (00:14)
daniel   pts/22       tmux(21211).%65  Mon Sep 10 15:02 - 15:03  (00:00)
colagran pts/44       144.80.66.54     Mon Sep 10 15:01 - 15:18  (00:16)
jchrispe pts/38       144.80.64.176    Mon Sep 10 15:01 - 15:40  (00:38)
palmer   pts/22       144.80.66.57     Mon Sep 10 14:59 - 15:02  (00:03)
custer   pts/14       144.80.66.56     Mon Sep 10 14:58 - 15:16  (00:18)
daniel   pts/43       tmux(21211).%64  Mon Sep 10 14:55 - 15:20  (00:25)
daniel   pts/43       tmux(21211).%63  Mon Sep 10 14:55 - 14:55  (00:00)
daniel   pts/42       tmux(21211).%62  Mon Sep 10 14:54 - 15:20  (00:26)
daniel   pts/41       tmux(21211).%61  Mon Sep 10 14:53 - 15:20  (00:26)
daniel   pts/40       tmux(21211).%60  Mon Sep 10 14:53 - 15:20  (00:26)
shakespe pts/39       144.80.66.49     Mon Sep 10 14:51 - 15:20  (00:28)
enterlin pts/15       144.80.36.241    Mon Sep 10 14:47 - 15:05  (00:18)
luther   pts/38       tmux(31009).%10  Mon Sep 10 14:45 - 14:55  (00:10)
luther   pts/37       tmux(31009).%9   Mon Sep 10 14:45 - 03:17 (1+12:32)
colagran pts/0        144.80.66.54     Mon Sep 10 14:45 - 15:19  (00:34)
daniel   pts/39       tmux(21211).%59  Mon Sep 10 14:45 - 14:45  (00:00)
daniel   pts/38       tmux(21211).%58  Mon Sep 10 14:45 - 14:45  (00:00)
daniel   pts/37       tmux(21211).%57  Mon Sep 10 14:45 - 14:45  (00:00)
turner   pts/36       144.80.66.52     Mon Sep 10 14:45 - 15:20  (00:35)
daniel   pts/35       tmux(21211).%56  Mon Sep 10 14:45 - 03:17 (1+12:32)
daniel   pts/33       tmux(21211).%55  Mon Sep 10 14:45 - 03:17 (1+12:32)
turner   pts/33       144.80.66.52     Mon Sep 10 14:44 - 14:44  (00:00)
botti    pts/32       144.80.66.77     Mon Sep 10 14:44 - 15:20  (00:35)
luther   pts/17       144.80.140.83    Mon Sep 10 14:44 - 15:36  (00:51)
klein    pts/34       144.80.66.59     Mon Sep 10 14:44 - 15:20  (00:36)
daniel   pts/33       tmux(21211).%54  Mon Sep 10 14:44 - 14:44  (00:00)
daniel   pts/33       tmux(21211).%53  Mon Sep 10 14:44 - 14:44  (00:00)
zaunegge pts/9        144.80.66.75     Mon Sep 10 14:44 - 15:21  (00:36)
daniel   pts/32       tmux(21211).%52  Mon Sep 10 14:44 - 14:44  (00:00)
jchrispe pts/29       144.80.64.176    Mon Sep 10 14:44 - 15:39  (00:55)
sansing  pts/27       144.80.66.74     Mon Sep 10 14:44 - 15:13  (00:29)
jchrispe pts/27       144.80.64.176    Mon Sep 10 14:43 - 14:43  (00:00)
palmer   pts/22       144.80.66.57     Mon Sep 10 14:41 - 14:58  (00:16)
jchrispe pts/22       144.80.64.176    Mon Sep 10 14:39 - 14:40  (00:00)
serafin  pts/19       144.80.66.66     Mon Sep 10 14:39 - 15:20  (00:40)
shakespe pts/19       144.80.66.49     Mon Sep 10 14:38 - 14:38  (00:00)
jchrispe pts/19       144.80.64.176    Mon Sep 10 14:38 - 14:38  (00:00)
murphy   pts/6        144.80.66.50     Mon Sep 10 14:38 - 15:20  (00:41)
george   pts/8        144.80.66.70     Mon Sep 10 14:37 - 15:21  (00:43)
turner   pts/32       144.80.66.52     Mon Sep 10 14:36 - 14:38  (00:02)
suchy    pts/31       144.80.66.53     Mon Sep 10 14:35 - 15:19  (00:44)
serafin  pts/29       144.80.66.66     Mon Sep 10 14:35 - 14:38  (00:02)
schrecen pts/25       144.80.66.48     Mon Sep 10 14:35 - 15:14  (00:39)
luther   pts/9        144.80.140.83    Mon Sep 10 14:35 - 14:44  (00:09)
zaunegge pts/8        144.80.66.75     Mon Sep 10 14:34 - 14:37  (00:02)
shakespe pts/6        144.80.66.49     Mon Sep 10 14:34 - 14:38  (00:03)
cicolini pts/30       144.80.66.76     Mon Sep 10 14:34 - 15:20  (00:45)
daniel   pts/29       tmux(21211).%51  Mon Sep 10 14:34 - 14:34  (00:00)
daniel   pts/8        tmux(21211).%50  Mon Sep 10 14:34 - 14:34  (00:00)
daniel   pts/25       tmux(21211).%49  Mon Sep 10 14:34 - 14:34  (00:00)
luther   pts/8        tmux(31009).%8   Mon Sep 10 14:34 - 14:34  (00:00)
palmer   pts/23       144.80.66.57     Mon Sep 10 14:34 - 15:20  (00:46)
botti    pts/22       144.80.66.77     Mon Sep 10 14:34 - 14:38  (00:03)
luther   pts/8        tmux(31009).%7   Mon Sep 10 14:34 - 14:34  (00:00)
jchrispe pts/19       144.80.64.176    Mon Sep 10 14:34 - 14:37  (00:02)
seger    pts/18       144.80.66.60     Mon Sep 10 14:34 - 15:16  (00:42)
klein    pts/17       144.80.66.59     Mon Sep 10 14:34 - 14:44  (00:09)
custer   pts/14       144.80.66.56     Mon Sep 10 14:34 - 14:57  (00:23)
daniel   pts/18       tmux(21211).%48  Mon Sep 10 14:34 - 14:34  (00:00)
daniel   pts/17       tmux(21211).%47  Mon Sep 10 14:34 - 14:34  (00:00)
daniel   pts/14       tmux(21211).%46  Mon Sep 10 14:33 - 14:34  (00:00)
sycz     pts/11       144.80.58.188    Mon Sep 10 14:33 - 15:19  (00:45)
daniel   pts/29       tmux(21211).%45  Mon Sep 10 14:32 - 14:33  (00:00)
daniel   pts/25       tmux(21211).%44  Mon Sep 10 14:32 - 14:33  (00:00)
daniel   pts/17       tmux(21211).%43  Mon Sep 10 14:32 - 14:33  (00:00)
schrecen pts/32       144.80.66.48     Mon Sep 10 14:32 - 14:33  (00:00)
cicolini pts/31       144.80.66.76     Mon Sep 10 14:32 - 14:32  (00:00)
daniel   pts/33       tmux(21211).%42  Mon Sep 10 14:31 - 14:32  (00:00)
daniel   pts/32       tmux(21211).%41  Mon Sep 10 14:31 - 14:31  (00:00)
daniel   pts/31       tmux(21211).%40  Mon Sep 10 14:31 - 14:32  (00:00)
serafin  pts/29       144.80.66.66     Mon Sep 10 14:31 - 14:32  (00:01)
custer   pts/18       144.80.66.56     Mon Sep 10 14:31 - 14:33  (00:01)
enterlin pts/15       144.80.36.241    Mon Sep 10 14:31 - 14:46  (00:15)
geary    pts/13       144.80.66.64     Mon Sep 10 14:31 - 15:03  (00:32)
botti    pts/30       144.80.66.77     Mon Sep 10 14:29 - 14:32  (00:03)
daniel   pts/29       tmux(21211).%39  Mon Sep 10 14:29 - 14:29  (00:00)
daniel   pts/18       tmux(21211).%38  Mon Sep 10 14:29 - 14:29  (00:00)
custer   pts/15       144.80.66.56     Mon Sep 10 14:28 - 14:31  (00:02)
george   pts/14       144.80.66.70     Mon Sep 10 14:28 - 14:32  (00:04)
daniel   pts/14       tmux(21211).%37  Mon Sep 10 14:28 - 14:28  (00:00)
seger    pts/11       144.80.66.60     Mon Sep 10 14:28 - 14:33  (00:04)
daniel   pts/30       tmux(21211).%36  Mon Sep 10 14:27 - 14:28  (00:00)
daniel   pts/29       tmux(21211).%35  Mon Sep 10 14:27 - 14:27  (00:00)
sansing  pts/27       144.80.66.74     Mon Sep 10 14:27 - 14:42  (00:15)
zaunegge pts/25       144.80.66.75     Mon Sep 10 14:27 - 14:32  (00:05)
klein    pts/23       144.80.66.59     Mon Sep 10 14:26 - 14:33  (00:06)
suchy    pts/22       144.80.66.53     Mon Sep 10 14:26 - 14:33  (00:07)
wise     pts/21       144.80.66.73     Mon Sep 10 14:26 - 15:20  (00:54)
sycz     pts/20       144.80.58.188    Mon Sep 10 14:26 - 15:12  (00:46)
geary    pts/19       144.80.64.114    Mon Sep 10 14:25 - 14:32  (00:06)
custer   pts/18       144.80.146.27    Mon Sep 10 14:25 - 14:27  (00:01)
palmer   pts/17       144.80.66.57     Mon Sep 10 14:25 - 14:32  (00:07)
sycz     pts/16       144.80.58.188    Mon Sep 10 14:24 - 15:19  (00:54)
colagran pts/0        144.80.66.54     Mon Sep 10 14:24 - 14:45  (00:20)
daniel   pts/15       tmux(21211).%34  Mon Sep 10 14:24 - 14:28  (00:04)
daniel   pts/15       tmux(21211).%33  Mon Sep 10 14:24 - 14:24  (00:00)
daniel   pts/14       tmux(21211).%32  Mon Sep 10 14:23 - 14:28  (00:04)
daniel   pts/13       tmux(21211).%31  Mon Sep 10 14:23 - 14:29  (00:05)
daniel   pts/16       tmux(21211).%30  Mon Sep 10 14:22 - 14:23  (00:00)
daniel   pts/15       tmux(21211).%29  Mon Sep 10 14:22 - 14:23  (00:00)
daniel   pts/13       tmux(21211).%28  Mon Sep 10 14:22 - 14:23  (00:00)
daniel   pts/16       tmux(21211).%27  Mon Sep 10 14:21 - 14:22  (00:00)
daniel   pts/15       tmux(21211).%26  Mon Sep 10 14:21 - 14:22  (00:00)
daniel   pts/13       tmux(21211).%25  Mon Sep 10 14:21 - 14:22  (00:00)
daniel   pts/16       tmux(21211).%24  Mon Sep 10 14:21 - 14:21  (00:00)
daniel   pts/15       tmux(21211).%23  Mon Sep 10 14:21 - 14:21  (00:00)
jchrispe pts/14       144.80.214.243   Mon Sep 10 14:20 - 14:23  (00:02)
daniel   pts/13       tmux(21211).%22  Mon Sep 10 14:20 - 14:21  (00:00)
fetterma pts/12       144.80.215.44    Mon Sep 10 14:20 - 15:14  (00:54)
seger    pts/11       144.80.66.60     Mon Sep 10 14:19 - 14:27  (00:07)
shabella pts/10       144.80.66.61     Mon Sep 10 14:19 - 15:37  (01:17)
daniel   pts/10       tmux(21211).%21  Mon Sep 10 14:19 - 14:19  (00:00)
daniel   pts/7        144.80.184.86    Mon Sep 10 14:19 - 15:20  (01:01)
fetterma pts/7        144.80.215.44    Mon Sep 10 14:18 - 14:18  (00:00)
sycz     pts/7        144.80.58.188    Mon Sep 10 14:11 - 14:16  (00:05)
luther   pts/9        tmux(31009).%6   Mon Sep 10 13:43 - 14:34  (00:51)
luther   pts/8        tmux(31009).%5   Mon Sep 10 13:43 - 14:34  (00:51)
jchrispe pts/7        144.80.214.243   Mon Sep 10 13:41 - 14:03  (00:21)
luther   pts/6        144.80.140.83    Mon Sep 10 13:41 - 14:34  (00:53)
suchy    pts/0        144.80.66.4      Mon Sep 10 13:30 - 14:24  (00:53)
palmer   pts/6        144.80.66.4      Mon Sep 10 12:45 - 12:57  (00:12)
sycz     pts/6        144.80.58.188    Mon Sep 10 12:30 - 12:34  (00:03)
sycz     pts/0        144.80.58.188    Mon Sep 10 12:13 - 13:15  (01:02)
palmer   pts/0        144.80.66.3      Mon Sep 10 11:56 - 12:10  (00:13)
palmer   pts/0        144.80.66.3      Mon Sep 10 11:53 - 11:56  (00:03)
colagran pts/6        144.80.110.107   Mon Sep 10 11:45 - 12:18  (00:32)
palmer   pts/0        144.80.66.3      Mon Sep 10 11:23 - 11:52  (00:29)
palmer   pts/0        144.80.66.3      Mon Sep 10 11:08 - 11:21  (00:13)
enterlin pts/6        144.80.36.241    Mon Sep 10 10:57 - 11:38  (00:41)
palmer   pts/0        144.80.65.101    Mon Sep 10 10:25 - 10:59  (00:33)
sansing  pts/0        144.80.66.61     Mon Sep 10 09:04 - 09:05  (00:00)
zaunegge pts/0        144.80.110.91    Sat Sep  8 15:10 - 15:33  (00:23)
daniel   pts/7        tmux(21211).%20  Sat Sep  8 13:35 - 13:35  (00:00)
daniel   pts/6        tmux(21211).%19  Sat Sep  8 13:32 - 13:35  (00:03)
daniel   pts/0        144.80.110.80    Sat Sep  8 13:32 - 13:35  (00:03)
daniel   pts/7        tmux(21211).%18  Sat Sep  8 13:28 - 13:28  (00:00)
daniel   pts/6        tmux(21211).%17  Sat Sep  8 13:28 - 13:31  (00:03)
daniel   pts/0        144.80.110.80    Sat Sep  8 13:28 - 13:31  (00:03)
daniel   pts/7        tmux(21211).%16  Sat Sep  8 13:23 - 13:27  (00:03)
daniel   pts/6        tmux(21211).%15  Sat Sep  8 13:23 - 13:27  (00:03)
daniel   pts/0        144.80.110.80    Sat Sep  8 13:23 - 13:27  (00:03)
daniel   pts/8        tmux(21211).%14  Sat Sep  8 13:03 - 13:05  (00:01)
daniel   pts/7        tmux(21211).%13  Sat Sep  8 12:58 - 13:17  (00:19)
daniel   pts/6        tmux(21211).%12  Sat Sep  8 12:58 - 13:23  (00:25)
daniel   pts/0        144.80.110.80    Sat Sep  8 12:58 - 13:23  (00:25)
daniel   pts/5        tmux(21211).%11  Sat Sep  8 11:02 - 03:17 (3+16:15)
daniel   pts/4        tmux(21211).%10  Sat Sep  8 11:02 - 03:17 (3+16:15)
daniel   pts/0        144.80.110.80    Sat Sep  8 11:02 - 12:58  (01:55)
daniel   pts/5        tmux(21211).%9   Sat Sep  8 10:56 - 11:00  (00:04)
daniel   pts/4        tmux(21211).%8   Sat Sep  8 10:56 - 11:00  (00:04)
daniel   pts/5        tmux(21211).%7   Sat Sep  8 10:55 - 10:56  (00:00)
daniel   pts/4        tmux(21211).%6   Sat Sep  8 10:55 - 10:56  (00:00)
daniel   pts/0        144.80.110.80    Sat Sep  8 10:55 - 11:00  (00:04)
daniel   pts/3        tmux(21211).%5   Sat Sep  8 10:55 - 03:17 (3+16:22)
daniel   pts/4        tmux(21211).%4   Sat Sep  8 10:53 - 10:55  (00:01)
daniel   pts/3        tmux(21211).%3   Sat Sep  8 10:53 - 10:55  (00:02)
daniel   pts/0        144.80.110.80    Sat Sep  8 10:53 - 10:55  (00:02)
luther   pts/4        tmux(31009).%4   Fri Sep  7 16:49 - 16:55  (00:05)
luther   pts/3        tmux(31009).%3   Fri Sep  7 16:40 - 16:55  (00:14)
luther   pts/3        tmux(31009).%2   Fri Sep  7 16:34 - 16:39  (00:05)
luther   pts/2        tmux(31009).%1   Fri Sep  7 16:32 - 03:17 (4+10:45)
luther   pts/1        tmux(31009).%0   Fri Sep  7 16:32 - 03:17 (4+10:45)
luther   pts/0        144.80.140.83    Fri Sep  7 16:31 - 17:55  (01:23)
luther   pts/2        tmux(30758).%1   Fri Sep  7 16:30 - 16:30  (00:00)
luther   pts/1        tmux(30758).%0   Fri Sep  7 16:30 - 16:31  (00:01)
luther   pts/0        144.80.140.83    Fri Sep  7 16:30 - 16:31  (00:01)
luther   pts/1        tmux(30318).%0   Fri Sep  7 16:26 - 16:27  (00:00)
luther   pts/0        144.80.140.83    Fri Sep  7 16:26 - 16:27  (00:00)
george   pts/8        144.80.66.70     Fri Sep  7 15:19 - 15:21  (00:02)
sycz     pts/17       tmux(22834).%0   Fri Sep  7 15:18 - 15:21  (00:03)
luther   pts/14       144.80.140.83    Fri Sep  7 15:18 - 15:23  (00:04)
palmer   pts/7        144.80.66.57     Fri Sep  7 15:18 - 15:23  (00:05)
daniel   pts/28       tmux(21211).%2   Fri Sep  7 15:13 - 03:17 (4+12:04)
klein    pts/27       144.80.66.59     Fri Sep  7 15:11 - 15:20  (00:09)
daniel   pts/26       tmux(21211).%1   Fri Sep  7 15:10 - 03:17 (4+12:07)
daniel   pts/24       tmux(21211).%0   Fri Sep  7 15:10 - 03:17 (4+12:07)
jchrispe pts/27       tmux(20909).%1   Fri Sep  7 15:08 - 15:09  (00:00)
jchrispe pts/26       tmux(20909).%0   Fri Sep  7 15:08 - 15:09  (00:01)
sycz     pts/25       144.80.66.58     Fri Sep  7 15:07 - 15:21  (00:14)
sycz     pts/18       144.80.66.58     Fri Sep  7 15:04 - 15:17  (00:12)
enterlin pts/23       144.80.38.163    Fri Sep  7 15:03 - 15:21  (00:17)
daniel   pts/24       144.80.185.42    Fri Sep  7 15:00 - 15:10  (00:09)
enterlin pts/23       144.80.38.163    Fri Sep  7 14:55 - 15:03  (00:07)
shabella pts/4        144.80.66.61     Fri Sep  7 14:55 - 15:25  (00:30)
fetterma pts/22       144.80.215.44    Fri Sep  7 14:54 - 15:22  (00:28)
luther   pts/21       144.80.140.83    Fri Sep  7 14:53 - 15:23  (00:30)
luther   pts/21       144.80.140.83    Fri Sep  7 14:53 - 14:53  (00:00)
fetterma pts/21       144.80.215.217   Fri Sep  7 14:52 - 14:52  (00:00)
geary    pts/20       144.80.66.64     Fri Sep  7 14:51 - 15:31  (00:39)
sycz     pts/18       144.80.66.58     Fri Sep  7 14:51 - 15:03  (00:12)
fetterma pts/20       144.80.215.217   Fri Sep  7 14:50 - 14:51  (00:00)
jchrispe pts/15       144.80.64.176    Fri Sep  7 14:50 - 15:33  (00:42)
fetterma pts/15       144.80.215.217   Fri Sep  7 14:47 - 14:48  (00:00)
fetterma pts/20       144.80.215.217   Fri Sep  7 14:43 - 14:46  (00:02)
daniel   pts/19       144.80.185.42    Fri Sep  7 14:43 - 15:41  (00:57)
fetterma pts/19       144.80.215.217   Fri Sep  7 14:42 - 14:42  (00:00)
johnson  pts/17       144.80.66.63     Fri Sep  7 14:42 - 15:16  (00:34)
daniel   pts/19       144.80.88.144    Fri Sep  7 14:41 - 14:42  (00:00)
geary    pts/18       144.80.66.64     Fri Sep  7 14:41 - 14:51  (00:09)
fetterma pts/17       144.80.215.217   Fri Sep  7 14:41 - 14:41  (00:00)
sycz     pts/15       144.80.58.188    Fri Sep  7 14:40 - 14:44  (00:03)
daniel   pts/18       144.80.88.144    Fri Sep  7 14:36 - 14:40  (00:04)
sycz     pts/17       144.80.58.188    Fri Sep  7 14:35 - 14:39  (00:03)
luther   pts/16       144.80.140.83    Fri Sep  7 14:35 - 15:24  (00:48)
fetterma pts/15       144.80.215.217   Fri Sep  7 14:35 - 14:40  (00:04)
shakespe pts/14       144.80.66.62     Fri Sep  7 14:35 - 15:17  (00:41)
suchy    pts/13       144.80.66.53     Fri Sep  7 14:34 - 15:22  (00:47)
serafin  pts/12       144.80.66.66     Fri Sep  7 14:34 - 15:24  (00:50)
seger    pts/11       144.80.66.60     Fri Sep  7 14:33 - 15:24  (00:51)
klein    pts/10       144.80.66.59     Fri Sep  7 14:33 - 15:20  (00:47)
zaunegge pts/9        144.80.66.75     Fri Sep  7 14:33 - 15:21  (00:47)
george   pts/8        144.80.66.70     Fri Sep  7 14:33 - 15:18  (00:45)
palmer   pts/7        144.80.66.57     Fri Sep  7 14:33 - 15:17  (00:44)
wise     pts/6        144.80.66.73     Fri Sep  7 14:31 - 15:21  (00:50)
cicolini pts/5        144.80.66.76     Fri Sep  7 14:31 - 15:24  (00:52)
shabella pts/4        144.80.66.61     Fri Sep  7 14:30 - 14:54  (00:24)
palmer   pts/4        144.80.66.57     Fri Sep  7 14:27 - 14:29  (00:02)
botti    pts/3        144.80.66.77     Fri Sep  7 14:27 - 15:24  (00:56)
turner   pts/2        144.80.66.51     Fri Sep  7 14:27 - 15:23  (00:56)
colagran pts/1        144.80.66.54     Fri Sep  7 14:27 - 15:26  (00:59)
sansing  pts/0        144.80.66.74     Fri Sep  7 14:26 - 15:21  (00:55)
fetterma pts/1        144.80.219.164   Fri Sep  7 14:23 - 14:23  (00:00)
daniel   pts/0        144.80.88.144    Fri Sep  7 14:16 - 14:24  (00:07)
seger    pts/0        144.80.65.148    Fri Sep  7 14:04 - 14:08  (00:04)
seger    pts/0        144.80.65.148    Fri Sep  7 13:54 - 14:03  (00:09)
sycz     pts/0        144.80.58.188    Fri Sep  7 12:59 - 12:59  (00:00)
sansing  pts/0        144.80.66.60     Fri Sep  7 09:38 - 09:38  (00:00)
reboot   system boot  4.15.0-33-generi Thu Sep  6 14:52   still running
reboot   system boot  4.15.0-33-generi Thu Sep  6 14:11   still running
jshyrock pts/1        :0               Thu Sep  6 06:44 - 06:48  (00:04)
jshyrock pts/0        :0               Thu Sep  6 06:42 - 06:50  (00:08)
reboot   system boot  4.15.0-33-generi Thu Sep  6 06:46   still running
jshyrock pts/0        :0               Thu Sep  6 06:35 - crash  (00:10)
shakespe pts/0        144.80.66.62     Wed Sep  5 15:30 - 15:31  (00:00)
sycz     pts/17       144.80.59.23     Wed Sep  5 15:18 - 15:18  (00:00)
enterlin pts/18       144.80.38.163    Wed Sep  5 15:00 - 15:26  (00:26)
klein    pts/20       144.80.66.51     Wed Sep  5 14:57 - 15:28  (00:30)
fetterma pts/21       144.80.142.244   Wed Sep  5 14:52 - 15:23  (00:31)
george   pts/19       144.80.66.70     Wed Sep  5 14:40 - 15:27  (00:46)
klein    pts/20       144.80.66.51     Wed Sep  5 14:37 - 14:56  (00:19)
george   pts/19       144.80.66.70     Wed Sep  5 14:37 - 14:40  (00:02)
enterlin pts/18       144.80.38.163    Wed Sep  5 14:37 - 15:00  (00:22)
sycz     pts/17       144.80.59.23     Wed Sep  5 14:36 - 15:17  (00:40)
shabella pts/16       144.80.66.61     Wed Sep  5 14:36 - 15:27  (00:50)
turner   pts/15       144.80.66.52     Wed Sep  5 14:36 - 15:34  (00:57)
jchrispe pts/14       144.80.64.176    Wed Sep  5 14:36 - 15:32  (00:56)
seger    pts/13       144.80.66.60     Wed Sep  5 14:36 - 15:27  (00:51)
geary    pts/12       144.80.66.64     Wed Sep  5 14:36 - 15:27  (00:50)
luther   pts/11       144.80.143.235   Wed Sep  5 14:36 - 17:38  (03:02)
custer   pts/10       144.80.66.56     Wed Sep  5 14:36 - 15:23  (00:47)
fetterma pts/10       144.80.142.244   Wed Sep  5 14:33 - 14:33  (00:00)
serafin  pts/9        144.80.66.67     Wed Sep  5 14:32 - 15:26  (00:53)
suchy    pts/8        144.80.66.57     Wed Sep  5 14:31 - 15:19  (00:47)
klein    pts/8        144.80.66.51     Wed Sep  5 14:29 - 14:30  (00:01)
daniel   pts/7        144.80.88.144    Wed Sep  5 14:29 - 15:23  (00:53)
cicolini pts/6        144.80.66.76     Wed Sep  5 14:28 - 15:27  (00:59)
botti    pts/5        144.80.66.77     Wed Sep  5 14:26 - 15:26  (01:00)
wise     pts/4        144.80.66.73     Wed Sep  5 14:24 - 15:31  (01:06)
zaunegge pts/1        144.80.66.75     Wed Sep  5 14:24 - 15:27  (01:02)
colagran pts/3        144.80.66.54     Wed Sep  5 14:23 - 15:26  (01:03)
sansing  pts/2        144.80.66.74     Wed Sep  5 14:22 - 15:31  (01:08)
fetterma pts/1        144.80.215.65    Wed Sep  5 14:22 - 14:23  (00:00)
wise     pts/1        144.80.66.73     Wed Sep  5 14:21 - 14:22  (00:00)
daniel   pts/1        144.80.88.144    Wed Sep  5 14:20 - 14:21  (00:00)
palmer   pts/0        144.80.66.58     Wed Sep  5 14:16 - 15:19  (01:02)
jchrispe pts/0        144.80.214.241   Wed Sep  5 13:51 - 13:56  (00:04)
palmer   pts/0        144.80.66.3      Wed Sep  5 13:22 - 13:27  (00:04)
palmer   pts/0        144.80.66.3      Wed Sep  5 13:20 - 13:21  (00:01)
sycz     pts/0        144.80.57.133    Tue Sep  4 09:26 - 09:33  (00:06)
fetterma pts/0        144.80.110.85    Sun Sep  2 14:05 - 14:08  (00:02)

wtmp begins Sun Sep  2 14:05:24 2018
