botti    pts/3        144.80.110.64    Tue Sep 18 14:07   still logged in
botti    pts/1        144.80.110.64    Tue Sep 18 14:05   still logged in
cicolini pts/0        144.80.110.67    Tue Sep 18 14:00   still logged in
cicolini pts/1        144.80.133.68    Tue Sep 18 13:58 - 13:58  (00:00)
peters   pts/0        144.80.66.18     Tue Sep 18 13:46 - 14:00  (00:13)
cicolini pts/3        144.80.133.68    Tue Sep 18 13:28 - 13:57  (00:29)
cicolini pts/1        144.80.133.68    Tue Sep 18 13:17 - 13:46  (00:28)
peters   pts/0        144.80.66.18     Tue Sep 18 13:17 - 13:46  (00:29)
cicolini pts/3        144.80.133.68    Tue Sep 18 11:55 - 12:14  (00:18)
cicolini pts/3        144.80.110.84    Tue Sep 18 10:58 - 11:48  (00:49)
klein    pts/2        144.80.91.18     Tue Sep 18 10:57 - 14:10  (03:13)
cicolini pts/1        144.80.133.68    Tue Sep 18 10:57 - 13:09  (02:12)
palmer   pts/0        144.80.186.52    Tue Sep 18 10:57 - 12:09  (01:12)
cicolini pts/4        144.80.133.68    Tue Sep 18 10:30 - 10:41  (00:11)
cicolini pts/4        144.80.133.68    Tue Sep 18 10:09 - 10:30  (00:20)
klein    pts/3        144.80.65.149    Tue Sep 18 10:06 - 10:52  (00:45)
seger    pts/2        144.80.65.148    Tue Sep 18 10:03 - 10:50  (00:47)
klein    pts/1        144.80.65.149    Tue Sep 18 10:01 - 10:52  (00:50)
seger    pts/0        144.80.65.148    Tue Sep 18 09:22 - 10:50  (01:27)
sansing  pts/0        144.80.110.57    Mon Sep 17 20:43 - 21:53  (01:10)
sansing  pts/0        144.80.110.57    Mon Sep 17 20:40 - 20:41  (00:00)
sansing  pts/4        144.80.110.57    Mon Sep 17 20:27 - 20:36  (00:08)
sansing  pts/3        144.80.110.57    Mon Sep 17 20:24 - 21:53  (01:28)
sansing  pts/3        144.80.110.57    Mon Sep 17 20:24 - 20:24  (00:00)
sycz     pts/2        144.80.110.53    Mon Sep 17 19:46 - 20:40  (00:53)
cicolini pts/1        144.80.110.69    Mon Sep 17 19:24 - 20:51  (01:27)
sycz     pts/0        144.80.110.53    Mon Sep 17 19:02 - 20:40  (01:37)
cicolini pts/0        144.80.133.68    Mon Sep 17 18:47 - 18:47  (00:00)
cicolini pts/0        144.80.133.68    Mon Sep 17 18:44 - 18:46  (00:02)
cicolini pts/0        144.80.133.68    Mon Sep 17 18:36 - 18:43  (00:06)
cicolini pts/0        144.80.110.81    Mon Sep 17 16:15 - 17:07  (00:52)
cicolini pts/0        144.80.110.81    Mon Sep 17 15:53 - 16:13  (00:19)
sansing  pts/1        144.80.66.74     Mon Sep 17 15:23 - 15:24  (00:00)
shakespe pts/6        144.80.144.181   Mon Sep 17 15:17 - 15:22  (00:05)
sycz     pts/23       144.80.57.247    Mon Sep 17 15:15 - 15:23  (00:08)
custer   pts/15       144.80.66.56     Mon Sep 17 15:01 - 15:21  (00:19)
shakespe pts/6        144.80.66.49     Mon Sep 17 15:01 - 15:16  (00:14)
geary    pts/24       144.80.66.64     Mon Sep 17 14:53 - 15:22  (00:28)
shakespe pts/27       144.80.66.49     Mon Sep 17 14:42 - 15:01  (00:19)
shakespe pts/27       144.80.66.49     Mon Sep 17 14:39 - 14:41  (00:02)
zaunegge pts/25       144.80.66.75     Mon Sep 17 14:38 - 15:23  (00:45)
luther   pts/23       144.80.141.30    Mon Sep 17 14:38 - 14:59  (00:21)
george   pts/28       144.80.66.70     Mon Sep 17 14:37 - 15:21  (00:44)
daniel   pts/27       tmux(44920).%10  Mon Sep 17 14:37 - 14:37  (00:00)
daniel   pts/25       tmux(44920).%9   Mon Sep 17 14:37 - 14:37  (00:00)
daniel   pts/23       tmux(44920).%8   Mon Sep 17 14:37 - 14:37  (00:00)
geary    pts/24       144.80.66.64     Mon Sep 17 14:37 - 14:53  (00:15)
luther   pts/23       144.80.141.30    Mon Sep 17 14:37 - 14:37  (00:00)
jchrispe pts/22       144.80.64.176    Mon Sep 17 14:37 - 15:25  (00:48)
sansing  pts/21       144.80.66.74     Mon Sep 17 14:37 - 15:23  (00:46)
