    1  ls
    2  clear
    3  git clone https://jchrispe@bitcuket.org/jchrispe/cs362classchrispell.git
    4  git clone https://jchrispe@bitbucket.org/jchrispe/cs362classchrispell.git
    5  ls
    6  cd cs362classchrispell/
    7  ls
    8  cd Assignments/
    9  ls
   10  cat Assignment09072018.txt 
   11  https://jchrispe@bitbucket.org/jchrispe/cs362classchri         spell.git
   12  cd ..
   13  ls
   14  cd mathiasbotticosc362unix/
   15  ls
   16  mkdir assignments
   17  cd assignments/
   18  mkdir assignment1
   19  cd assignment1/
   20  nano CommentsOnCommandLineExpressions
   21  ls
   22  man ls
   23  ls
   24  nano CommentsOnCommandLineExpressions
   25  ls
   26  man ls
   27  ls -l
   28  nano CommentsOnCommandLineExpressions 
   29  man ls
   30  ls -a
   31  nano CommentsOnCommandLineExpressions 
   32  man rm
   33  nano CommentsOnCommandLineExpressions 
   34  cd ..
   35  git add assignments/
   36  git status
   37  git commit
   38  git commit -m "adding assignment1 stuff"
   39  git push
   40  ls
   41  cd cs362classchrispell/
   42  git pull
   43  cd ..
   44  ls
   45  cd mathiasbotticosc362unix/
   46  git pull
   47  cd ..
   48  cd cs362classchrispell/
   49  ls
   50  exit
   51  cd cs362classchrispell/
   52  ls
   53  cd Projects/
   54  ls
   55  cd ClassPresentations/
   56  ls
   57  exit
   58  ls
   59  cd mathiasbotticosc362unix/
   60  ls
   61  git pull
   62  cd assignments/
   63  ls
   64  cat assignment1/
   65  cd assignment1/
   66  ls
   67  nano CommentsOnCommandLineExpressions 
   68  cd ..
   69  cd .
   70  cd ..
   71  cd cs362classchrispell/
   72  ls
   73  cd Assignments/
   74  ls
   75  cat Assignment09072018.txt 
   76  cd ~
   77  cd mathiasbotticosc362unix/
   78  cd assignments/
   79  ls
   80  cd assignment1/
   81  ls
   82  man du
   83  nano CommentsOnCommandLineExpressions 
   84  man du
   85  nano CommentsOnCommandLineExpressions 
   86  man mv
   87  nano CommentsOnCommandLineExpressions 
   88  man cp
   89  nano CommentsOnCommandLineExpressions 
   90  man cp
   91  nano CommentsOnCommandLineExpressions 
   92  man whoami
   93  nano CommentsOnCommandLineExpressions 
   94  man passwd
   95  nano CommentsOnCommandLineExpressions 
   96  man wc
   97  nano CommentsOnCommandLineExpressions 
   98  cd ..
   99  git add assignment1/
  100  git status
  101  git commit -m "finished assignment 1"
  102  git push
  103  git status
  104  cd assignment1/
  105  history > Asmt1History.txt
  106  mv Asmt1History.txt Asmt1History.log 
  107  ls
  108  tail -n 20 Asmt1History.log > Asmt1Tail.log
  109  ls
  110  diff Asmt1History.log Asmt1Tail.log 
  111  nano CommentsOnCommandLineExpressions 
  112  cd ..
  113  git add assignment1/
  114  git status
  115  git commit -m "Actually finished assignment 1"
  116  git push
  117  git status
  118  exit
  119  ls
  120  rm -rf cs362classchrispell/
  121  git clone https://mathiasbotti@bitbucket.org/jchrispe/cs362classchrispell.git
  122  ls
  123  cd cs362classchrispell/
  124  ls
  125  exit
  126  cd cs362classchrispell/
  127  ls
  128  evince Syllabus.pdf &
  129  kill 40429
  130  cd Assignments
  131  ls
  132  cd Assignment09102018/
  133  ls
  134  cd ..
  135  ls
  136  cd Assignments/
  137  ls
  138  cd Assignment09102018/
  139  ls
  140  cd ..
  141  cd Assignment09072018
  142  ls
  143  cd ..
  144  cd Assignment09102018/
  145  ls
  146  git pull
  147  clear
  148  ls
  149  nano Assignment.tex 
  150  cd ..
  151  ls
  152  cd ..
  153  ls
  154  cd ~
  155  ls
  156  cd mathiasbotticosc362unix/
  157  ls
  158  mkdir Classnotes
  159  cd Classnotes/
  160  mkdir notes0914
  161  cd notes0914/
  162  nano TexExample.tex
  163  ls
  164  pdflatex TexExample.tex 
  165  ls
  166  evince TexExample.pdf &
  167  clear
  168  ls
  169  nano TexExample.tex
  170  pdflatex TexExample.tex 
  171  evince TexExample.pdf &
  172  clear
  173  xfig
  174  ls
  175  cd ~
  176  ls
  177  cd cs362classchrispell/
  178  ls
  179  cd Assignments/
  180  ls
  181  cd Assignment09102018/
  182  ls
  183  pdflatex Assignment.tex 
  184  ls
  185  evince Assignment.pdf &
  186  cd ~
  187  ls
  188  cd mathiasbotticosc362unix/
  189  ls
  190  cd Classnotes/
  191  ls
  192  cd notes0914/
  193  ls
  194  nano MyInclude.tex
  195  nano TexExample.tex
  196  pdflatex TexExample.tex
  197  evince TexExample.pdf &
  198  clear
  199  ls
  200  rm *.aux
  201  rm *.log
  202  ls
  203  history > terminalHistory.txt
  204  ls
  205  cat terminalHistory.txt 
  206  tail -n 60 terminalHistory.txt  > terminalHistory.txt 
  207  cat terminalHistory.txt 
  208  nano terminalHistory.txt 
  209  history > terminalHistory.txt
