Santa, Clause, 1 North Pole Ln, Top of the Earth
Easter, Bunny, Top-Secret Location, Easter Island
Tooth, Fairy, Small Town Clouds, Magic Land Anywhere USA
Mr., Sandman, Night Time Dreamland, 12AM and On
Clark, Kent, 344 Clinton street, Midtown Metropolis
Scary, Monster, Under your bed, Your House
